{
  "EDITOR_STATE": {
    "allProjectFiles": {
      "9abbfdee-a6ff-4464-9fc9-0285f048b449": {
        "id": "9abbfdee-a6ff-4464-9fc9-0285f048b449",
        "parent": null,
        "name": "testingcp",
        "type": "DIRECTORY",
        "isDirectory": true,
        "children": [
          "621efd2d-7d59-4ad4-aaf1-e8f9416b5bb9"
        ],
        "isRemovable": false,
        "filePath": "testingcp"
      },
      "621efd2d-7d59-4ad4-aaf1-e8f9416b5bb9": {
        "id": "621efd2d-7d59-4ad4-aaf1-e8f9416b5bb9",
        "parent": "9abbfdee-a6ff-4464-9fc9-0285f048b449",
        "name": "function.js",
        "type": "JS_LAMBDA",
        "isDirectory": false,
        "children": [],
        "isRemovable": true,
        "filePath": "testingcp/function.js",
        "code": "exports.handler = function(request, response) {\n    \n    response.send({\"message\": \"Successfully executed\"});\n}",
        "config": {
          "runtime": "nodejs8",
          "timeout": 60,
          "memory": 128,
          "triggerType": 0
        },
        "triggers": [
          {
            "resourceName": "http-trigger",
            "config": {}
          }
        ]
      },
      "ccd3c888-b6fd-4e0d-bc79-92901d4691c3": {
        "id": "ccd3c888-b6fd-4e0d-bc79-92901d4691c3",
        "parent": null,
        "name": "index.js",
        "type": "JS_FILE",
        "isDirectory": false,
        "children": [],
        "isRemovable": false,
        "filePath": "index.js",
        "code": "// This file is used to register all your cloud functions in GCP.\n// DO NOT EDIT/DELETE THIS, UNLESS YOU KNOW WHAT YOU ARE DOING.\n\nexports.testingcpfunction = require(\"./testingcp/function.js\").handler;"
      }
    },
    "deletedFiles": [],
    "rootNode": "9abbfdee-a6ff-4464-9fc9-0285f048b449",
    "openFiles": [
      "621efd2d-7d59-4ad4-aaf1-e8f9416b5bb9"
    ],
    "currentFileId": "621efd2d-7d59-4ad4-aaf1-e8f9416b5bb9",
    "resources": {
      "http-trigger": {
        "name": "http-trigger",
        "type": "http-trigger",
        "config": {}
      }
    },
    "customTemplate": {
      "dialect": null,
      "definitions": {}
    },
    "envVariables": [],
    "packageJSON": {
      "dependencies": {}
    }
  },
  "PROJECT_META": {
    "projectName": "testingcp",
    "projectDescription": "",
    "projectVersion": "1.0.0",
    "projectRegion": "us-east1",
    "platform": "GCP",
    "platformRegions": {},
    "lastSave": 1560251885788
  },
  "VCS_STATE": {
    "provider": "BitBucket",
    "repo": {
      "name": "testingcp",
      "url": "https://bitbucket.org/hirudineeliyanage/testingcp"
    }
  }
}